^D:\1.TRAINING\1.C++\ONLINE-PROJECT\CPP_TEST_BANK_ACCOUNT\ACCOUNT.CPP|D:\1.TRAINING\1.C++\ONLINE-PROJECT\CPP_TEST_BANK_ACCOUNT\TESTACCOUNT.CPP
D:\1.TRAINING\1.C++\ONLINE-PROJECT\CPP_TEST_BANK_ACCOUNT\CPP_TEST_BANK_ACCOUNT\DEBUG\VC140.PDB
D:\1.TRAINING\1.C++\ONLINE-PROJECT\CPP_TEST_BANK_ACCOUNT\CPP_TEST_BANK_ACCOUNT\DEBUG\VC140.IDB
D:\1.TRAINING\1.C++\ONLINE-PROJECT\CPP_TEST_BANK_ACCOUNT\CPP_TEST_BANK_ACCOUNT\DEBUG\ACCOUNT.OBJ
D:\1.TRAINING\1.C++\ONLINE-PROJECT\CPP_TEST_BANK_ACCOUNT\CPP_TEST_BANK_ACCOUNT\DEBUG\TESTACCOUNT.OBJ
^D:\1.TRAINING\1.C++\ONLINE-PROJECT\CPP_TEST_BANK_ACCOUNT\ACCOUNT.CPP
D:\1.TRAINING\1.C++\ONLINE-PROJECT\CPP_TEST_BANK_ACCOUNT\CPP_TEST_BANK_ACCOUNT\DEBUG\VC140.PDB
^D:\1.TRAINING\1.C++\ONLINE-PROJECT\CPP_TEST_BANK_ACCOUNT\TESTACCOUNT.CPP
D:\1.TRAINING\1.C++\ONLINE-PROJECT\CPP_TEST_BANK_ACCOUNT\CPP_TEST_BANK_ACCOUNT\DEBUG\VC140.PDB
